<?xml version="1.0" encoding="UTF-8" standalone="no"?>
<svg
   viewBox="0 0 256 256"
   version="1.1"
   id="svg15"
   sodipodi:docname="tile-boxes.svg"
   width="256"
   height="256"
   inkscape:version="1.4 (e7c3feb100, 2024-10-09)"
   xmlns:inkscape="http://www.inkscape.org/namespaces/inkscape"
   xmlns:sodipodi="http://sodipodi.sourceforge.net/DTD/sodipodi-0.dtd"
   xmlns:xlink="http://www.w3.org/1999/xlink"
   xmlns="http://www.w3.org/2000/svg"
   xmlns:svg="http://www.w3.org/2000/svg">
  <defs
     id="defs15">
    <radialGradient
       inkscape:collect="always"
       xlink:href="#linearGradient1246"
       id="radialGradient1596"
       gradientUnits="userSpaceOnUse"
       gradientTransform="matrix(6,0,0,6,723.80215,-317.92747)"
       cx="134.19965"
       cy="222.98792"
       fx="134.19965"
       fy="222.98792"
       r="2" />
    <linearGradient
       inkscape:collect="always"
       id="linearGradient1246">
      <stop
         style="stop-color:#ffffff;stop-opacity:1"
         offset="0"
         id="stop1240" />
      <stop
         id="stop1242"
         offset="0.39999995"
         style="stop-color:#ffffff;stop-opacity:1" />
      <stop
         style="stop-color:#f6f5f4;stop-opacity:1"
         offset="1"
         id="stop1244" />
    </linearGradient>
    <radialGradient
       inkscape:collect="always"
       xlink:href="#linearGradient1246"
       id="radialGradient1598"
       gradientUnits="userSpaceOnUse"
       gradientTransform="matrix(6,0,0,6,723.80215,-229.92747)"
       cx="134.19965"
       cy="222.98792"
       fx="134.19965"
       fy="222.98792"
       r="2" />
    <radialGradient
       inkscape:collect="always"
       xlink:href="#linearGradient1246"
       id="radialGradient1600"
       gradientUnits="userSpaceOnUse"
       gradientTransform="matrix(4,0,0,4,968.20144,194.04834)"
       cx="134.19965"
       cy="222.98792"
       fx="134.19965"
       fy="222.98792"
       r="2" />
    <radialGradient
       inkscape:collect="always"
       xlink:href="#linearGradient1246"
       id="radialGradient1602"
       gradientUnits="userSpaceOnUse"
       gradientTransform="matrix(4,0,0,4,968.20144,154.04834)"
       cx="134.19965"
       cy="222.98792"
       fx="134.19965"
       fy="222.98792"
       r="2" />
    <radialGradient
       inkscape:collect="always"
       xlink:href="#linearGradient1246"
       id="radialGradient1604"
       gradientUnits="userSpaceOnUse"
       gradientTransform="matrix(6,0,0,6,635.80215,-317.92747)"
       cx="134.19965"
       cy="222.98792"
       fx="134.19965"
       fy="222.98792"
       r="2" />
    <radialGradient
       inkscape:collect="always"
       xlink:href="#linearGradient1246"
       id="radialGradient1606"
       gradientUnits="userSpaceOnUse"
       gradientTransform="matrix(6,0,0,6,635.80215,-229.92747)"
       cx="134.19965"
       cy="222.98792"
       fx="134.19965"
       fy="222.98792"
       r="2" />
    <radialGradient
       inkscape:collect="always"
       xlink:href="#linearGradient1246"
       id="radialGradient1608"
       gradientUnits="userSpaceOnUse"
       gradientTransform="matrix(4,0,0,4,928.20144,154.04834)"
       cx="134.19965"
       cy="222.98792"
       fx="134.19965"
       fy="222.98792"
       r="2" />
    <radialGradient
       inkscape:collect="always"
       xlink:href="#linearGradient1246"
       id="radialGradient1610"
       gradientUnits="userSpaceOnUse"
       gradientTransform="matrix(4,0,0,4,928.20144,194.04834)"
       cx="134.19965"
       cy="222.98792"
       fx="134.19965"
       fy="222.98792"
       r="2" />
  </defs>
  <sodipodi:namedview
     id="namedview15"
     pagecolor="#ffffff"
     bordercolor="#000000"
     borderopacity="0.25"
     inkscape:showpageshadow="2"
     inkscape:pageopacity="0.0"
     inkscape:pagecheckerboard="0"
     inkscape:deskcolor="#d1d1d1"
     inkscape:zoom="1.4142136"
     inkscape:cx="148.84598"
     inkscape:cy="173.59471"
     inkscape:window-width="5120"
     inkscape:window-height="1371"
     inkscape:window-x="0"
     inkscape:window-y="0"
     inkscape:window-maximized="1"
     inkscape:current-layer="g1" />
  <g
     id="g1"
     transform="matrix(2.217025,1.28,-1.28,2.217025,-207.86038,-391.07275)">
    <rect
       ry="59.634232"
       rx="62.063881"
       y="60"
       x="165"
       height="100.00001"
       width="100"
       id="rect490-9"
       style="display:inline;fill:#613583;fill-opacity:1;stroke:none;stroke-width:0.25;stroke-linecap:butt;stroke-linejoin:miter;stroke-miterlimit:4;stroke-dasharray:none;stroke-dashoffset:0;stroke-opacity:1;marker:none;marker-start:none;marker-mid:none;marker-end:none;paint-order:normal;enable-background:new" />
    <path
       id="path502-5"
       style="color:#000000;font-style:normal;font-variant:normal;font-weight:normal;font-stretch:normal;font-size:medium;line-height:normal;font-family:sans-serif;font-variant-ligatures:normal;font-variant-position:normal;font-variant-caps:normal;font-variant-numeric:normal;font-variant-alternates:normal;font-variant-east-asian:normal;font-feature-settings:normal;font-variation-settings:normal;text-indent:0;text-align:start;text-decoration:none;text-decoration-line:none;text-decoration-style:solid;text-decoration-color:#000000;letter-spacing:normal;word-spacing:normal;text-transform:none;writing-mode:lr-tb;direction:ltr;text-orientation:mixed;dominant-baseline:auto;baseline-shift:baseline;text-anchor:start;white-space:normal;shape-padding:0;shape-margin:0;inline-size:0;clip-rule:nonzero;display:inline;overflow:visible;visibility:visible;opacity:0.5;isolation:auto;mix-blend-mode:normal;color-interpolation:sRGB;color-interpolation-filters:linearRGB;solid-color:#000000;solid-opacity:1;fill:#ffffff;fill-opacity:1;fill-rule:nonzero;stroke:none;stroke-width:6.86969;stroke-linecap:round;stroke-linejoin:miter;stroke-miterlimit:4;stroke-dasharray:none;stroke-dashoffset:0;stroke-opacity:1;color-rendering:auto;image-rendering:auto;shape-rendering:auto;text-rendering:auto;enable-background:accumulate;stop-color:#000000"
       d="m 207.93223,111.57162 c -0.58228,0 -1.05468,0.47241 -1.05469,1.05469 -5.1e-4,0.82067 -0.66566,1.48582 -1.48633,1.48633 -0.58227,-1e-5 -1.05468,0.4724 -1.05468,1.05468 -1e-5,0.58229 0.4724,1.05469 1.05468,1.05469 0.82067,5.1e-4 1.48583,0.66566 1.48633,1.48633 0,0.58228 0.47241,1.0547 1.05469,1.05469 0.52249,-1e-5 0.8303,-0.38466 0.94439,-1.40818 0.01,-1.30952 1.59663,-1.13284 1.59663,-1.13284 0.58228,1e-5 1.05469,-0.4724 1.05468,-1.05469 0,-0.58228 -0.4724,-1.05469 -1.05468,-1.05468 -0.82067,-5.1e-4 -1.48583,-0.66566 -1.48633,-1.48633 -1e-5,-0.58228 -0.47241,-1.05469 -1.05469,-1.05469 z"
       sodipodi:nodetypes="sccsccsccsccs" />
    <circle
       style="display:inline;fill:#ffffff;fill-opacity:1;stroke:none;stroke-width:6.86969;stroke-linecap:round;stroke-linejoin:round;stroke-miterlimit:4;stroke-dasharray:none;stroke-opacity:0.482318;enable-background:new;stop-color:#000000"
       id="circle492-9"
       cx="207.93217"
       cy="115.16728"
       r="1.3579686" />
    <circle
       style="display:inline;opacity:0.5;fill:#ffffff;fill-opacity:1;stroke:none;stroke-width:6.86969;stroke-linecap:round;stroke-linejoin:round;stroke-miterlimit:4;stroke-dasharray:none;stroke-opacity:0.482318;enable-background:new;stop-color:#000000"
       id="circle494-9"
       cx="227.94162"
       cy="147.36159"
       r="0.63991678" />
    <circle
       style="display:inline;opacity:0.5;fill:#ffffff;fill-opacity:1;stroke:none;stroke-width:6.86969;stroke-linecap:round;stroke-linejoin:round;stroke-miterlimit:4;stroke-dasharray:none;stroke-opacity:0.482318;enable-background:new;stop-color:#000000"
       id="circle496-0"
       cx="190.61375"
       cy="129.45816"
       r="1.3579686" />
    <circle
       style="display:inline;opacity:0.5;fill:#ffffff;fill-opacity:1;stroke:none;stroke-width:6.86969;stroke-linecap:round;stroke-linejoin:round;stroke-miterlimit:4;stroke-dasharray:none;stroke-opacity:0.482318;enable-background:new;stop-color:#000000"
       id="circle498-8"
       cx="225.36424"
       cy="137.75209"
       r="1.3579686" />
    <circle
       style="display:inline;opacity:0.5;fill:#ffffff;fill-opacity:1;stroke:none;stroke-width:6.86969;stroke-linecap:round;stroke-linejoin:round;stroke-miterlimit:4;stroke-dasharray:none;stroke-opacity:0.482318;enable-background:new;stop-color:#000000"
       id="circle500-8"
       cx="218.88882"
       cy="131.27415"
       r="0.46629655" />
    <circle
       style="display:inline;opacity:0.5;fill:#ffffff;fill-opacity:1;stroke:none;stroke-width:6.86969;stroke-linecap:round;stroke-linejoin:round;stroke-miterlimit:4;stroke-dasharray:none;stroke-opacity:0.482318;enable-background:new;stop-color:#000000"
       id="circle504-0"
       cx="217.83067"
       cy="147.27284"
       r="1.3579686" />
    <path
       id="path15629"
       style="color:#000000;font-style:normal;font-variant:normal;font-weight:normal;font-stretch:normal;font-size:medium;line-height:normal;font-family:sans-serif;font-variant-ligatures:normal;font-variant-position:normal;font-variant-caps:normal;font-variant-numeric:normal;font-variant-alternates:normal;font-variant-east-asian:normal;font-feature-settings:normal;font-variation-settings:normal;text-indent:0;text-align:start;text-decoration:none;text-decoration-line:none;text-decoration-style:solid;text-decoration-color:#000000;letter-spacing:normal;word-spacing:normal;text-transform:none;writing-mode:lr-tb;direction:ltr;text-orientation:mixed;dominant-baseline:auto;baseline-shift:baseline;text-anchor:start;white-space:normal;shape-padding:0;shape-margin:0;inline-size:0;clip-rule:nonzero;display:inline;overflow:visible;visibility:visible;opacity:0.5;isolation:auto;mix-blend-mode:normal;color-interpolation:sRGB;color-interpolation-filters:linearRGB;solid-color:#000000;solid-opacity:1;fill:#ffffff;fill-opacity:1;fill-rule:nonzero;stroke:none;stroke-width:6.86969;stroke-linecap:round;stroke-linejoin:miter;stroke-miterlimit:4;stroke-dasharray:none;stroke-dashoffset:0;stroke-opacity:1;color-rendering:auto;image-rendering:auto;shape-rendering:auto;text-rendering:auto;enable-background:accumulate;stop-color:#000000"
       d="m 236.01839,123.12867 c -0.58228,0 -1.05468,0.47241 -1.05469,1.05469 -5.1e-4,0.82067 -0.66566,1.48582 -1.48633,1.48633 -0.58227,-1e-5 -1.05468,0.4724 -1.05468,1.05468 -10e-6,0.58229 0.4724,1.05469 1.05468,1.05469 0.82067,5.1e-4 1.48583,0.66566 1.48633,1.48633 0,0.58228 0.47241,1.0547 1.05469,1.05469 0.52249,-1e-5 0.8303,-0.38466 0.94439,-1.40818 0.01,-1.30952 1.59663,-1.13284 1.59663,-1.13284 0.58229,1e-5 1.05469,-0.4724 1.05468,-1.05469 0,-0.58228 -0.4724,-1.05469 -1.05468,-1.05468 -0.82067,-5.1e-4 -1.48583,-0.66566 -1.48633,-1.48633 -1e-5,-0.58228 -0.47241,-1.05469 -1.05469,-1.05469 z"
       sodipodi:nodetypes="sccsccsccsccs" />
    <circle
       style="display:inline;fill:#ffffff;fill-opacity:1;stroke:none;stroke-width:6.86969;stroke-linecap:round;stroke-linejoin:round;stroke-miterlimit:4;stroke-dasharray:none;stroke-opacity:0.482318;enable-background:new;stop-color:#000000"
       id="circle15631"
       cx="236.01834"
       cy="126.72433"
       r="1.3579686" />
    <circle
       style="display:inline;opacity:0.5;fill:#ffffff;fill-opacity:1;stroke:none;stroke-width:6.86969;stroke-linecap:round;stroke-linejoin:round;stroke-miterlimit:4;stroke-dasharray:none;stroke-opacity:0.482318;enable-background:new;stop-color:#000000"
       id="circle654"
       cx="210.56664"
       cy="88.420113"
       r="1.3579686" />
    <circle
       style="display:inline;opacity:0.5;fill:#ffffff;fill-opacity:1;stroke:none;stroke-width:6.86969;stroke-linecap:round;stroke-linejoin:round;stroke-miterlimit:4;stroke-dasharray:none;stroke-opacity:0.482318;enable-background:new;stop-color:#000000"
       id="circle656"
       cx="237.72823"
       cy="108.64699"
       r="0.63991678" />
    <circle
       style="display:inline;opacity:0.5;fill:#ffffff;fill-opacity:1;stroke:none;stroke-width:6.86969;stroke-linecap:round;stroke-linejoin:round;stroke-miterlimit:4;stroke-dasharray:none;stroke-opacity:0.482318;enable-background:new;stop-color:#000000"
       id="circle660"
       cx="207.64206"
       cy="95.089981"
       r="0.63991678" />
    <circle
       style="display:inline;opacity:0.5;fill:#ffffff;fill-opacity:1;stroke:none;stroke-width:6.86969;stroke-linecap:round;stroke-linejoin:round;stroke-miterlimit:4;stroke-dasharray:none;stroke-opacity:0.482318;enable-background:new;stop-color:#000000"
       id="circle1004"
       cx="226.56664"
       cy="84.420113"
       r="1.3579686" />
    <circle
       style="display:inline;opacity:0.5;fill:#ffffff;fill-opacity:1;stroke:none;stroke-width:6.86969;stroke-linecap:round;stroke-linejoin:round;stroke-miterlimit:4;stroke-dasharray:none;stroke-opacity:0.482318;enable-background:new;stop-color:#000000"
       id="circle2"
       cx="162.55373"
       cy="-183.62802"
       r="1.3579686"
       transform="rotate(75)" />
    <circle
       style="display:inline;opacity:0.5;fill:#ffffff;fill-opacity:1;stroke:none;stroke-width:6.86969;stroke-linecap:round;stroke-linejoin:round;stroke-miterlimit:4;stroke-dasharray:none;stroke-opacity:0.482318;enable-background:new;stop-color:#000000"
       id="circle3"
       cx="159.62915"
       cy="-176.95813"
       r="0.63991678"
       transform="rotate(75)" />
    <circle
       style="display:inline;opacity:0.5;fill:#ffffff;fill-opacity:1;stroke:none;stroke-width:6.86969;stroke-linecap:round;stroke-linejoin:round;stroke-miterlimit:4;stroke-dasharray:none;stroke-opacity:0.482318;enable-background:new;stop-color:#000000"
       id="circle4"
       cx="178.55373"
       cy="-187.62802"
       r="1.3579686"
       transform="rotate(75)" />
    <path
       id="path4"
       style="color:#000000;font-style:normal;font-variant:normal;font-weight:normal;font-stretch:normal;font-size:medium;line-height:normal;font-family:sans-serif;font-variant-ligatures:normal;font-variant-position:normal;font-variant-caps:normal;font-variant-numeric:normal;font-variant-alternates:normal;font-variant-east-asian:normal;font-feature-settings:normal;font-variation-settings:normal;text-indent:0;text-align:start;text-decoration:none;text-decoration-line:none;text-decoration-style:solid;text-decoration-color:#000000;letter-spacing:normal;word-spacing:normal;text-transform:none;writing-mode:lr-tb;direction:ltr;text-orientation:mixed;dominant-baseline:auto;baseline-shift:baseline;text-anchor:start;white-space:normal;shape-padding:0;shape-margin:0;inline-size:0;clip-rule:nonzero;display:inline;overflow:visible;visibility:visible;opacity:0.5;isolation:auto;mix-blend-mode:normal;color-interpolation:sRGB;color-interpolation-filters:linearRGB;solid-color:#000000;solid-opacity:1;fill:#ffffff;fill-opacity:1;fill-rule:nonzero;stroke:none;stroke-width:6.86969;stroke-linecap:round;stroke-linejoin:miter;stroke-miterlimit:4;stroke-dasharray:none;stroke-dashoffset:0;stroke-opacity:1;color-rendering:auto;image-rendering:auto;shape-rendering:auto;text-rendering:auto;enable-background:accumulate;stop-color:#000000"
       d="m 205.83887,76.695828 c -0.58228,0 -1.05468,0.47241 -1.05469,1.05469 -5.1e-4,0.82067 -0.66566,1.485824 -1.48633,1.486334 -0.58227,-1e-5 -1.05468,0.4724 -1.05468,1.05468 -1e-5,0.58229 0.4724,1.05469 1.05468,1.05469 0.82067,5.1e-4 1.48583,0.66566 1.48633,1.48633 0,0.58228 0.47241,1.0547 1.05469,1.05469 0.52249,-1e-5 0.8303,-0.38466 0.94439,-1.40818 0.01,-1.30952 1.59663,-1.13284 1.59663,-1.13284 0.58228,1e-5 1.05469,-0.4724 1.05468,-1.05469 0,-0.58228 -0.4724,-1.05469 -1.05468,-1.05468 -0.82067,-5.1e-4 -1.48583,-0.665664 -1.48633,-1.486334 -1e-5,-0.58228 -0.47241,-1.05469 -1.05469,-1.05469 z"
       sodipodi:nodetypes="sccsccsccsccs" />
    <circle
       style="display:inline;fill:#ffffff;fill-opacity:1;stroke:none;stroke-width:6.86969;stroke-linecap:round;stroke-linejoin:round;stroke-miterlimit:4;stroke-dasharray:none;stroke-opacity:0.482318;enable-background:new;stop-color:#000000"
       id="circle5"
       cx="205.83882"
       cy="80.291496"
       r="1.3579686" />
    <circle
       style="display:inline;opacity:0.5;fill:#ffffff;fill-opacity:1;stroke:none;stroke-width:6.86969;stroke-linecap:round;stroke-linejoin:round;stroke-miterlimit:4;stroke-dasharray:none;stroke-opacity:0.482318;enable-background:new;stop-color:#000000"
       id="circle6"
       cx="188.5204"
       cy="94.582367"
       r="1.3579686" />
    <circle
       style="display:inline;opacity:0.5;fill:#ffffff;fill-opacity:1;stroke:none;stroke-width:6.86969;stroke-linecap:round;stroke-linejoin:round;stroke-miterlimit:4;stroke-dasharray:none;stroke-opacity:0.482318;enable-background:new;stop-color:#000000"
       id="circle7"
       cx="235.63487"
       cy="73.771187"
       r="0.63991678" />
    <circle
       style="display:inline;fill:#ffffff;fill-opacity:1;stroke:none;stroke-width:6.86969;stroke-linecap:round;stroke-linejoin:round;stroke-miterlimit:4;stroke-dasharray:none;stroke-opacity:0.482318;enable-background:new;stop-color:#000000"
       id="circle8"
       cx="125.69005"
       cy="-163.88538"
       r="1.3579686"
       transform="rotate(75)" />
    <circle
       style="display:inline;opacity:0.5;fill:#ffffff;fill-opacity:1;stroke:none;stroke-width:6.86969;stroke-linecap:round;stroke-linejoin:round;stroke-miterlimit:4;stroke-dasharray:none;stroke-opacity:0.482318;enable-background:new;stop-color:#000000"
       id="circle9"
       cx="128.32451"
       cy="-190.63254"
       r="1.3579686"
       transform="rotate(75)" />
    <circle
       style="display:inline;opacity:0.5;fill:#ffffff;fill-opacity:1;stroke:none;stroke-width:6.86969;stroke-linecap:round;stroke-linejoin:round;stroke-miterlimit:4;stroke-dasharray:none;stroke-opacity:0.482318;enable-background:new;stop-color:#000000"
       id="circle10"
       cx="125.39993"
       cy="-183.96265"
       r="0.63991678"
       transform="rotate(75)" />
    <circle
       style="display:inline;opacity:0.5;fill:#ffffff;fill-opacity:1;stroke:none;stroke-width:6.86969;stroke-linecap:round;stroke-linejoin:round;stroke-miterlimit:4;stroke-dasharray:none;stroke-opacity:0.482318;enable-background:new;stop-color:#000000"
       id="circle12"
       cx="-234.67067"
       cy="106.82759"
       r="1.3579686"
       transform="rotate(-120)" />
    <circle
       style="display:inline;opacity:0.5;fill:#ffffff;fill-opacity:1;stroke:none;stroke-width:6.86969;stroke-linecap:round;stroke-linejoin:round;stroke-miterlimit:4;stroke-dasharray:none;stroke-opacity:0.482318;enable-background:new;stop-color:#000000"
       id="circle13"
       cx="-187.55617"
       cy="86.016418"
       r="0.63991678"
       transform="rotate(-120)" />
    <path
       id="path13"
       style="color:#000000;font-style:normal;font-variant:normal;font-weight:normal;font-stretch:normal;font-size:medium;line-height:normal;font-family:sans-serif;font-variant-ligatures:normal;font-variant-position:normal;font-variant-caps:normal;font-variant-numeric:normal;font-variant-alternates:normal;font-variant-east-asian:normal;font-feature-settings:normal;font-variation-settings:normal;text-indent:0;text-align:start;text-decoration:none;text-decoration-line:none;text-decoration-style:solid;text-decoration-color:#000000;letter-spacing:normal;word-spacing:normal;text-transform:none;writing-mode:lr-tb;direction:ltr;text-orientation:mixed;dominant-baseline:auto;baseline-shift:baseline;text-anchor:start;white-space:normal;shape-padding:0;shape-margin:0;inline-size:0;clip-rule:nonzero;display:inline;overflow:visible;visibility:visible;opacity:0.5;isolation:auto;mix-blend-mode:normal;color-interpolation:sRGB;color-interpolation-filters:linearRGB;solid-color:#000000;solid-opacity:1;fill:#ffffff;fill-opacity:1;fill-rule:nonzero;stroke:none;stroke-width:6.86969;stroke-linecap:round;stroke-linejoin:miter;stroke-miterlimit:4;stroke-dasharray:none;stroke-dashoffset:0;stroke-opacity:1;color-rendering:auto;image-rendering:auto;shape-rendering:auto;text-rendering:auto;enable-background:accumulate;stop-color:#000000"
       d="m 192.64947,153.06845 c -0.41173,0.41175 -0.4117,1.07982 3e-5,1.49154 0.57993,0.58066 0.57993,1.52132 -2e-5,2.102 -0.41173,0.41173 -0.41174,1.07981 0,1.49156 0.41174,0.41173 1.07981,0.41171 1.49156,0 0.58064,-0.57996 1.5213,-0.57997 2.10199,-2e-5 0.41172,0.41176 1.07983,0.41175 1.49156,1e-5 0.36944,-0.36947 0.31509,-0.85911 -0.32797,-1.66352 -0.9189,-0.93305 0.32796,-1.93004 0.32796,-1.93004 0.41174,-0.41171 0.41174,-1.07981 -3e-5,-1.49154 -0.41172,-0.41174 -1.0798,-0.41174 -1.49152,0 -0.58067,0.57995 -1.52133,0.57993 -2.10198,0 -0.41174,-0.41173 -1.07985,-0.41172 -1.49158,1e-5 z"
       sodipodi:nodetypes="sccsccsccsccs" />
    <circle
       style="display:inline;fill:#ffffff;fill-opacity:1;stroke:none;stroke-width:6.86969;stroke-linecap:round;stroke-linejoin:round;stroke-miterlimit:4;stroke-dasharray:none;stroke-opacity:0.482318;enable-background:new;stop-color:#000000"
       id="circle14"
       cx="27.988091"
       cy="248.0551"
       r="1.3579686"
       transform="rotate(-45)" />
    <circle
       style="display:inline;opacity:0.5;fill:#ffffff;fill-opacity:1;stroke:none;stroke-width:6.86969;stroke-linecap:round;stroke-linejoin:round;stroke-miterlimit:4;stroke-dasharray:none;stroke-opacity:0.482318;enable-background:new;stop-color:#000000"
       id="circle15"
       cx="30.622536"
       cy="221.30803"
       r="1.3579686"
       transform="rotate(-45)" />
    <circle
       style="display:inline;opacity:0.5;fill:#ffffff;fill-opacity:1;stroke:none;stroke-width:6.86969;stroke-linecap:round;stroke-linejoin:round;stroke-miterlimit:4;stroke-dasharray:none;stroke-opacity:0.482318;enable-background:new;stop-color:#000000"
       id="circle16"
       cx="27.69799"
       cy="227.97792"
       r="0.63991678"
       transform="rotate(-45)" />
  </g>
  <g
     id="g15"
     transform="matrix(2.0090238,0,0,2.0090238,-2855.4003,-2023.6645)">
    <g
       id="g1556"
       transform="translate(1421,836.00001)"
       style="display:inline;enable-background:new">
      <path
         id="path1554"
         d="M 22.351934,194.35194 H 105.03869 V 277.0387 H 22.351934 Z"
         style="color:#000000;font-style:normal;font-variant:normal;font-weight:normal;font-stretch:normal;font-size:medium;line-height:normal;font-family:sans-serif;font-variant-ligatures:normal;font-variant-position:normal;font-variant-caps:normal;font-variant-numeric:normal;font-variant-alternates:normal;font-feature-settings:normal;text-indent:0;text-align:start;text-decoration:none;text-decoration-line:none;text-decoration-style:solid;text-decoration-color:#000000;letter-spacing:normal;word-spacing:normal;text-transform:none;writing-mode:lr-tb;direction:ltr;text-orientation:mixed;dominant-baseline:auto;baseline-shift:baseline;text-anchor:start;white-space:normal;shape-padding:0;clip-rule:nonzero;display:inline;overflow:visible;visibility:visible;opacity:1;isolation:auto;mix-blend-mode:normal;color-interpolation:sRGB;color-interpolation-filters:linearRGB;solid-color:#000000;solid-opacity:1;fill:none;fill-opacity:1;fill-rule:nonzero;stroke:none;stroke-width:8.70387;stroke-linecap:round;stroke-linejoin:miter;stroke-miterlimit:4;stroke-dasharray:none;stroke-dashoffset:0;stroke-opacity:1;marker:none;paint-order:normal;color-rendering:auto;image-rendering:auto;shape-rendering:auto;text-rendering:auto;enable-background:new"
         inkscape:connector-curvature="0" />
    </g>
    <g
       id="g1570"
       transform="translate(1421,836.00001)"
       style="display:inline;enable-background:new">
      <path
         inkscape:connector-curvature="0"
         id="path1558"
         d="m 84,256 24,24"
         style="color:#000000;display:inline;overflow:visible;visibility:visible;fill:none;stroke:#f6f5f4;stroke-width:8;stroke-miterlimit:4;stroke-dasharray:none;stroke-opacity:1;marker:none;enable-background:new"
         sodipodi:nodetypes="cc" />
      <path
         sodipodi:nodetypes="cc"
         style="color:#000000;display:inline;overflow:visible;visibility:visible;fill:none;stroke:#f6f5f4;stroke-width:8;stroke-miterlimit:4;stroke-dasharray:none;stroke-opacity:1;marker:none;enable-background:new"
         d="m 84,216 24,-24"
         id="path1560"
         inkscape:connector-curvature="0" />
      <path
         sodipodi:nodetypes="cc"
         style="color:#000000;display:inline;overflow:visible;visibility:visible;fill:none;stroke:#f6f5f4;stroke-width:8;stroke-miterlimit:4;stroke-dasharray:none;stroke-opacity:1;marker:none;enable-background:new"
         d="M 44,256 20,280"
         id="path1562"
         inkscape:connector-curvature="0" />
      <path
         inkscape:connector-curvature="0"
         id="path1564"
         d="M 44,216 20,192"
         style="color:#000000;display:inline;overflow:visible;visibility:visible;fill:none;stroke:#f6f5f4;stroke-width:8;stroke-miterlimit:4;stroke-dasharray:none;stroke-opacity:1;marker:none;enable-background:new"
         sodipodi:nodetypes="cc" />
      <rect
         style="color:#000000;display:inline;overflow:visible;visibility:visible;fill:none;stroke:#f6f5f4;stroke-width:8;stroke-miterlimit:4;stroke-dasharray:none;stroke-opacity:1;marker:none;enable-background:new"
         id="rect1566"
         width="40"
         height="40"
         x="44"
         y="216" />
      <rect
         y="192"
         x="20"
         height="88"
         width="88"
         id="rect1568"
         style="color:#000000;display:inline;overflow:visible;visibility:visible;fill:none;stroke:#f6f5f4;stroke-width:8;stroke-miterlimit:4;stroke-dasharray:none;stroke-opacity:1;marker:none;enable-background:new" />
    </g>
    <circle
       r="12"
       cy="1116"
       cx="1529"
       id="circle1572"
       style="color:#000000;display:inline;overflow:visible;visibility:visible;fill:#d5d3cf;fill-opacity:1;stroke:none;stroke-width:1;marker:none;enable-background:new" />
    <circle
       r="12"
       cy="1026"
       cx="1529"
       id="circle1574"
       style="color:#000000;display:inline;overflow:visible;visibility:visible;fill:url(#radialGradient1596);fill-opacity:1;stroke:none;stroke-width:1;marker:none;enable-background:new" />
    <circle
       r="8"
       cy="1052"
       cx="1505"
       id="circle1576"
       style="color:#000000;display:inline;overflow:visible;visibility:visible;fill:#d5d3cf;fill-opacity:1;stroke:none;stroke-width:1;marker:none;enable-background:new" />
    <circle
       style="color:#000000;display:inline;overflow:visible;visibility:visible;fill:url(#radialGradient1598);fill-opacity:1;stroke:none;stroke-width:1;marker:none;enable-background:new"
       id="circle1578"
       cx="1529"
       cy="1114"
       r="12" />
    <circle
       r="8"
       cy="1090"
       cx="1505"
       id="circle1580"
       style="color:#000000;display:inline;overflow:visible;visibility:visible;fill:url(#radialGradient1600);fill-opacity:1;stroke:none;stroke-width:1;marker:none;enable-background:new" />
    <circle
       style="color:#000000;display:inline;overflow:visible;visibility:visible;fill:url(#radialGradient1602);fill-opacity:1;stroke:none;stroke-width:1;marker:none;enable-background:new"
       id="circle1582"
       cx="1505"
       cy="1050"
       r="8" />
    <circle
       style="color:#000000;display:inline;overflow:visible;visibility:visible;fill:#d5d3cf;fill-opacity:1;stroke:none;stroke-width:1;marker:none;enable-background:new"
       id="circle1584"
       cx="1441"
       cy="1116"
       r="12" />
    <circle
       style="color:#000000;display:inline;overflow:visible;visibility:visible;fill:#d5d3cf;fill-opacity:1;stroke:none;stroke-width:1;marker:none;enable-background:new"
       id="circle1586"
       cx="1465"
       cy="1052"
       r="8" />
    <circle
       style="color:#000000;display:inline;overflow:visible;visibility:visible;fill:url(#radialGradient1604);fill-opacity:1;stroke:none;stroke-width:1;marker:none;enable-background:new"
       id="circle1588"
       cx="1441"
       cy="1026"
       r="12" />
    <circle
       r="12"
       cy="1114"
       cx="1441"
       id="circle1590"
       style="color:#000000;display:inline;overflow:visible;visibility:visible;fill:url(#radialGradient1606);fill-opacity:1;stroke:none;stroke-width:1;marker:none;enable-background:new" />
    <circle
       r="8"
       cy="1050"
       cx="1465"
       id="circle1592"
       style="color:#000000;display:inline;overflow:visible;visibility:visible;fill:url(#radialGradient1608);fill-opacity:1;stroke:none;stroke-width:1;marker:none;enable-background:new" />
    <circle
       style="color:#000000;display:inline;overflow:visible;visibility:visible;fill:url(#radialGradient1610);fill-opacity:1;stroke:none;stroke-width:1;marker:none;enable-background:new"
       id="circle1594"
       cx="1465"
       cy="1090"
       r="8" />
  </g>
</svg>
